<?xml version="1.0" encoding="UTF-8"?>
<svg width="82px" height="63px" viewBox="0 0 82 63" version="1.1" xmlns="http://www.w3.org/2000/svg" xmlns:xlink="http://www.w3.org/1999/xlink">
    <!-- Generator: Sketch 52.6 (67491) - http://www.bohemiancoding.com/sketch -->
    <title>Group 3</title>
    <desc>Created with Sketch.</desc>
    <g id="Page-1" stroke="none" stroke-width="1" fill="none" fill-rule="evenodd">
        <g id="00-c-IPEX-Home" transform="translate(-338.000000, -1944.000000)" fill-rule="nonzero">
            <g id="Group-3" transform="translate(338.000000, 1944.000000)">
                <path d="M68.9307359,47.4332314 L32.047619,16.1804281 C31.388992,15.6106014 31.7841682,14.5147808 32.6623377,14.5147808 L39.380334,14.5147808 L39.380334,10 L5,10 L5,14.470948 L10.0055659,14.470948 C11.1471861,14.470948 12.2888064,14.8654434 13.1669759,15.6106014 L50.0500928,46.8634047 C50.7087199,47.4332314 50.3135436,48.529052 49.4353741,48.529052 L41.619666,48.529052 L41.619666,53 L76,53 L76,48.529052 L72.0921459,48.529052 C70.9505257,48.5728848 69.8089054,48.1783894 68.9307359,47.4332314 Z" id="Shape" fill="#111111"></path>
                <path d="M30.2469831,40.2608696 C30.378922,40.4347826 30.378922,40.6956522 30.2030035,40.826087 L12.6111558,57.3043478 L21.3191204,62.2173913 C21.4950389,62.3043478 21.5829981,62.5217391 21.5390185,62.6956522 C21.4950389,62.8695652 21.3191204,63 21.0992223,63 L0.472780906,63 C0.472780906,63 0.428801287,63 0.428801287,63 C0.340842049,63 0.25288281,62.9565217 0.164923572,62.9130435 C0.164923572,62.9130435 0.164923572,62.9130435 0.164923572,62.9130435 C0.0769643336,62.8695652 0.0329847144,62.7826087 0.0329847144,62.6956522 C-0.0109949048,62.6086957 -0.0109949048,62.4782609 0.0329847144,62.3913043 L5.57441673,42.826087 C5.61839635,42.6521739 5.79431483,42.5217391 6.01421293,42.5217391 C6.23411102,42.5217391 6.36604988,42.6521739 6.45400912,42.8695652 L8.87288817,52.5217391 L29.6752481,40.2173913 C29.8511665,40.0434783 30.1150442,40.0869565 30.2469831,40.2608696 Z M81.9670153,0.304347826 C81.9230357,0.217391304 81.879056,0.130434783 81.7910968,0.0869565217 C81.7910968,0.0869565217 81.7910968,0.0869565217 81.7471172,0.0869565217 C81.7031376,0 81.6151783,0 81.5272191,0 L60.9007777,0 C60.6808796,0 60.5049611,0.130434783 60.4609815,0.304347826 C60.4170019,0.47826087 60.5049611,0.695652174 60.6808796,0.782608696 L69.3888442,5.69565217 L51.7530169,22.173913 C51.5770984,22.3478261 51.5770984,22.5652174 51.7090373,22.7391304 C51.7969965,22.8695652 51.9289354,22.9130435 52.0608742,22.9130435 C52.1488335,22.9130435 52.2367927,22.9130435 52.2807723,22.8695652 L73.0831322,10.5652174 L75.5020113,20.2173913 C75.5459909,20.3913043 75.7219094,20.5652174 75.9418075,20.5652174 C76.1617056,20.5652174 76.337624,20.4347826 76.3816036,20.2608696 L81.9670153,0.652173913 C82.0109949,0.52173913 82.0109949,0.391304348 81.9670153,0.304347826 Z" id="Shape" fill="#408FDD"></path>
            </g>
        </g>
    </g>
</svg>