<?xml version="1.0" encoding="utf-8"?>
<!-- Generator: Adobe Illustrator 23.0.4, SVG Export Plug-In . SVG Version: 6.00 Build 0)  -->
<svg version="1.1" id="Calque_1" xmlns="http://www.w3.org/2000/svg" xmlns:xlink="http://www.w3.org/1999/xlink" x="0px" y="0px"
	 viewBox="0 0 83 54" style="enable-background:new 0 0 83 54;" xml:space="preserve">
<style type="text/css">
	.st0{fill:#3792FD;}
	.st1{fill:#999999;}
	.st2{fill:#FFFFFF;}
</style>
<path class="st0" d="M42.1,21.3c-6.3,0-11.5,5.1-11.5,11.5c0,2.6,0.9,5,2.4,7l-7.9,7.1l1.4,1.6l7.9-7.1c2,1.8,4.7,3,7.7,3
	c6.3,0,11.5-5.1,11.5-11.5C53.6,26.4,48.4,21.3,42.1,21.3z M42.1,42.1c-5.1,0-9.3-4.2-9.3-9.3c0-5.2,4.2-9.3,9.3-9.3
	c5.2,0,9.3,4.2,9.3,9.3C51.4,37.9,47.2,42.1,42.1,42.1z"/>
<g>
	<path class="st1" d="M72.9,28H56.8c-0.5,0-0.9-0.4-0.9-0.9c0-0.5,0.4-0.9,0.9-0.9h16.1c0.5,0,0.9,0.4,0.9,0.9
		C73.8,27.6,73.4,28,72.9,28z"/>
	<path class="st1" d="M72.9,32.1H56.8c-0.5,0-0.9-0.4-0.9-0.9s0.4-0.9,0.9-0.9h16.1c0.5,0,0.9,0.4,0.9,0.9S73.4,32.1,72.9,32.1z"/>
	<path class="st1" d="M72.9,36.1H56.8c-0.5,0-0.9-0.4-0.9-0.9c0-0.5,0.4-0.9,0.9-0.9h16.1c0.5,0,0.9,0.4,0.9,0.9
		C73.8,35.7,73.4,36.1,72.9,36.1z"/>
	<path class="st1" d="M64.8,40.1h-8c-0.5,0-0.9-0.4-0.9-0.9c0-0.5,0.4-0.9,0.9-0.9h8c0.5,0,0.9,0.4,0.9,0.9
		C65.6,39.7,65.2,40.1,64.8,40.1z"/>
	<path class="st1" d="M72.9,24H56.8c-0.5,0-0.9-0.4-0.9-0.9c0-0.5,0.4-0.9,0.9-0.9h16.1c0.5,0,0.9,0.4,0.9,0.9
		C73.8,23.6,73.4,24,72.9,24z"/>
	<path class="st1" d="M77.2,52.2H48.5c-2.6,0-4.7-2.1-4.7-4.7c0-0.5,0.4-0.9,0.9-0.9s0.9,0.4,0.9,0.9c0,1.7,1.3,3,3,3h28.7
		c1.7,0,3-1.3,3-3V6.7c0-1.7-1.3-3-3-3h-20L45.5,15.3V19c0,0.5-0.4,0.9-0.9,0.9s-0.9-0.4-0.9-0.9v-4c0-0.2,0.1-0.4,0.3-0.6L56.2,2.2
		C56.3,2.1,56.5,2,56.8,2h20.4c2.6,0,4.7,2.1,4.7,4.7v40.8C81.9,50.1,79.8,52.2,77.2,52.2z"/>
	<path class="st1" d="M53.8,15.8h-9.1v-1.7h9.1c1,0,2.1-0.9,2.1-2.1V2.9h1.7V12C57.6,14.1,55.9,15.8,53.8,15.8z"/>
	<path class="st1" d="M72.9,19.8H60.8c-0.5,0-0.9-0.4-0.9-0.9s0.4-0.9,0.9-0.9h12.1c0.5,0,0.9,0.4,0.9,0.9S73.4,19.8,72.9,19.8z"/>
</g>
<g>
	<path class="st1" d="M32.3,13.1c-0.2,0-0.5-0.1-0.6-0.3l-8.2-8.9c-0.2-0.2-0.3-0.4-0.7-0.4H10c-0.7,0-1.2,0.8-1.2,1.7v2.4
		c0,0.5-0.4,0.9-0.9,0.9S7.1,8.1,7.1,7.6V5.2c0-1.9,1.3-3.4,2.9-3.4h12.7c0.9,0,1.6,0.4,2.1,1.1l8.1,8.8c0.3,0.3,0.3,0.9,0,1.2
		C32.7,13,32.5,13.1,32.3,13.1z"/>
	<path class="st1" d="M32.3,8.3H47c0.6-0.6,1.2-1.2,1.9-1.7H32.3c-0.5,0-0.9,0.4-0.9,0.9S31.8,8.3,32.3,8.3z"/>
	<path class="st1" d="M42.4,50.5H5.7c-1.1,0-1.9-1-1.9-2.2V10.5c0-1.3,0.8-2.2,1.9-2.2H8c0.5,0,0.9-0.4,0.9-0.9S8.4,6.6,8,6.6H5.7
		c-2,0-3.6,1.7-3.6,3.9v37.7c0,2.2,1.6,3.9,3.6,3.9h37.9C43.2,51.7,42.7,51.1,42.4,50.5z"/>
	<path class="st1" d="M43.8,11.4H32.3c-0.5,0-0.9,0.4-0.9,0.9c0,0.5,0.4,0.9,0.9,0.9h9.8C42.6,12.5,43.2,12,43.8,11.4z"/>
</g>
</svg>
