<?xml version="1.0" encoding="utf-8"?>
<!-- Generator: Adobe Illustrator 23.0.4, SVG Export Plug-In . SVG Version: 6.00 Build 0)  -->
<svg version="1.1" id="Calque_1" xmlns="http://www.w3.org/2000/svg" xmlns:xlink="http://www.w3.org/1999/xlink" x="0px" y="0px"
	 viewBox="0 0 100 100" style="enable-background:new 0 0 100 100;" xml:space="preserve">
<style type="text/css">
	.st0{fill:#3792FD;}
	.st1{fill:#19568E;}
	.st2{fill:#FFFFFF;}
</style>
<g>
	<path class="st0" d="M31.9,43.6c-6.9,0-12.5,5.6-12.5,12.5c0,2.8,1,5.5,2.6,7.6l-8.5,7.7l1.6,1.7l8.6-7.7c2.2,2,5.1,3.2,8.3,3.2
		c6.9,0,12.5-5.6,12.5-12.5C44.4,49.2,38.7,43.6,31.9,43.6z M31.9,66.3c-5.6,0-10.2-4.6-10.2-10.2c0-5.6,4.6-10.2,10.2-10.2
		C37.5,46,42,50.5,42,56.1C42,61.7,37.5,66.3,31.9,66.3z"/>
	<g>
		<path class="st1" d="M65.4,50.8H47.8c-0.4,0-0.8-0.3-0.8-0.8s0.3-0.8,0.8-0.8h17.5c0.4,0,0.8,0.3,0.8,0.8S65.8,50.8,65.4,50.8z"/>
		<path class="st1" d="M65.4,55.3H47.8c-0.4,0-0.8-0.3-0.8-0.8s0.3-0.8,0.8-0.8h17.5c0.4,0,0.8,0.3,0.8,0.8S65.8,55.3,65.4,55.3z"/>
		<path class="st1" d="M65.4,59.6H47.8c-0.4,0-0.8-0.3-0.8-0.8s0.3-0.8,0.8-0.8h17.5c0.4,0,0.8,0.3,0.8,0.8S65.8,59.6,65.4,59.6z"/>
		<path class="st1" d="M56.5,64h-8.7c-0.4,0-0.8-0.3-0.8-0.8s0.3-0.8,0.8-0.8h8.7c0.4,0,0.8,0.3,0.8,0.8S57,64,56.5,64z"/>
		<path class="st1" d="M65.4,46.4H47.8c-0.4,0-0.8-0.3-0.8-0.8s0.3-0.8,0.8-0.8h17.5c0.4,0,0.8,0.3,0.8,0.8S65.8,46.4,65.4,46.4z"/>
		<path class="st1" d="M70,77.2H38.8c-2.7,0-5-2.2-5-5c0-0.4,0.3-0.8,0.8-0.8c0.4,0,0.8,0.3,0.8,0.8c0,1.9,1.5,3.4,3.4,3.4H70
			c1.9,0,3.4-1.5,3.4-3.4V27.8c0-1.9-1.5-3.4-3.4-3.4H48.2L35.4,37.1v4c0,0.4-0.3,0.8-0.8,0.8c-0.4,0-0.8-0.3-0.8-0.8v-4.3
			c0-0.2,0.1-0.4,0.2-0.5l13.2-13.2c0.1-0.1,0.3-0.2,0.5-0.2H70c2.7,0,5,2.2,5,5v44.4C75,74.9,72.8,77.2,70,77.2z"/>
		<path class="st1" d="M44.6,37.6h-9.9V36h9.9c1.2,0,2.5-1,2.5-2.5v-9.9h1.6v9.9C48.6,35.8,46.8,37.6,44.6,37.6z"/>
		<path class="st1" d="M65.4,41.9H52.2c-0.4,0-0.8-0.3-0.8-0.8s0.3-0.8,0.8-0.8h13.2c0.4,0,0.8,0.3,0.8,0.8S65.8,41.9,65.4,41.9z"/>
	</g>
</g>
</svg>
